Project title
…
data

# A tibble: 37,047 × 8
   Sex     Age Height Weight Medal  Sport      Category        Points
   <chr> <dbl>  <dbl>  <dbl> <chr>  <chr>      <chr>            <dbl>
 1 M        28    175     64 Bronze Gymnastics Male Gymnastics      1
 2 M        28    175     64 Gold   Gymnastics Male Gymnastics      3
 3 M        28    175     64 <NA>   Gymnastics Male Gymnastics      0
 4 M        28    175     64 Gold   Gymnastics Male Gymnastics      3
 5 M        28    175     64 <NA>   Gymnastics Male Gymnastics      0
 6 M        28    175     64 <NA>   Gymnastics Male Gymnastics      0
 7 M        28    175     64 <NA>   Gymnastics Male Gymnastics      0
 8 M        28    175     64 Gold   Gymnastics Male Gymnastics      3
 9 M        32    175     64 <NA>   Gymnastics Male Gymnastics      0
10 M        32    175     64 Bronze Gymnastics Male Gymnastics      1
# … with 37,037 more rows
…
